12423,0.51
12460,0.51
12495,2.94
12532,2.94
12568,2.94
12605,11.65
12642,11.65
12680,31.22
12717,31.22
12754,65.16
12792,65.16
12829,65.16
12867,101.18
12905,101.18
12944,136.96
12982,136.96
13021,171.04
13060,171.04
13099,201.12
13136,201.12
13174,201.12
13213,226.90
13251,226.90
13290,249.07
13329,249.07
13368,269.85
13406,269.85
13445,290.35
13483,290.35
13520,290.35
13559,310.95
13598,310.95
13637,330.35
13675,330.35
13714,347.43
13752,347.43
13791,347.43
13830,361.62
13868,361.62
13906,372.27
13944,372.27
13983,375.96
14021,375.96
14060,375.96
14098,375.96
14137,375.96
14176,368.72
14214,368.72
14253,347.91
14290,347.91
14329,325.51
14367,325.51
14406,303.38
14444,303.38
14483,303.38
14522,283.83
14560,283.83
14599,269.05
14637,269.05
14675,257.78
14713,257.78
14752,248.87
14791,248.87
14829,248.87
14868,240.14
14906,240.14
14945,231.45
14983,231.45
15022,223.35
15060,223.35
15099,217.66
15137,217.66
15175,217.66
15214,214.84
15252,214.84
15291,214.84
15330,214.84
15369,215.54
15407,215.54
15446,219.72
15483,219.72
15522,219.72
15561,223.51
15599,223.51
15638,227.45
15676,227.45
15715,231.08
15753,231.08
15792,231.08
15831,233.95
15868,233.95
15907,236.81
15945,236.81
15984,240.70
16022,240.70
16061,243.85
16099,243.85
16138,243.85
16177,247.88
16215,247.88
16253,252.57
16291,252.57
16330,256.93
16368,256.93
16407,261.25
16445,261.25
16484,261.25
16523,264.55
16561,264.55
16600,266.38
16637,266.38
16676,267.59
16714,267.59
16753,268.34
16792,268.34
16830,268.34
16869,270.15
16907,270.15
16946,271.38
16985,271.38
17024,273.18
17061,273.18
17100,275.59
17138,275.59
17176,275.59
17215,277.79
17254,277.79
17293,279.16
17331,279.16
17370,278.94
17408,278.94
17446,277.94
17484,277.94
17523,277.94
17562,274.41
17600,274.41
17639,268.44
17677,268.44
17716,262.35
17754,262.35
17793,262.35
17831,257.34
17869,257.34
17908,254.23
17946,254.23
17985,253.03
18023,253.03
18062,252.62
18100,252.62
18139,252.62
18178,251.84
18215,251.84
18254,249.86
18292,249.86
18331,246.69
18369,246.69
18408,240.82
18446,240.82
18485,240.82
18524,231.27
18562,231.27
18600,218.69
18638,218.69
18677,203.73
18716,203.73
18755,187.45
18793,187.45
18831,187.45
18870,171.68
18908,171.68
18947,155.87
18985,155.87
19024,140.82
19062,140.82
19101,126.37
19139,126.37
19177,126.37
19216,112.18
19255,112.18
19294,97.69
19331,97.69
19368,82.25
19405,82.25
19442,82.25
19480,66.48
19518,66.48
19556,50.06
19593,50.06
19631,34.06
19667,34.06
19704,34.06
19742,19.26
19780,19.26
19817,6.56
19854,6.56