\BOOKMARK [1][-]{section.1}{Performance \046 Design of aSpaceborne SAR \(BIOMASS mission\)}{}% 1
\BOOKMARK [2][-]{subsection.1.1}{Introduction}{section.1}% 2
\BOOKMARK [2][-]{subsection.1.2}{Performance Requirements \046 Design}{section.1}% 3
\BOOKMARK [3][-]{subsubsection.1.2.1}{Accuracy Requirements}{subsection.1.2}% 4
\BOOKMARK [3][-]{subsubsection.1.2.2}{Pulse Pattern \046 Power Requirements}{subsection.1.2}% 5
\BOOKMARK [3][-]{subsubsection.1.2.3}{Further considerations}{subsection.1.2}% 6
\BOOKMARK [2][-]{subsection.1.3}{InSAR Applications}{section.1}% 7
\BOOKMARK [3][-]{subsubsection.1.3.1}{Phase Noise Estimation}{subsection.1.3}% 8
\BOOKMARK [3][-]{subsubsection.1.3.2}{Accuracy Requirements}{subsection.1.3}% 9
\BOOKMARK [1][-]{section.2}{Focusing of Raw SAR Data}{}% 10
\BOOKMARK [2][-]{subsection.2.1}{Introduction}{section.2}% 11
\BOOKMARK [2][-]{subsection.2.2}{Focusing Algorithm}{section.2}% 12
